{
	"main_script": "osgjs.js",
	"icon": "osgjs.png",
	"width": 800,
	"height": 600,
	"resize": "free",
	"animation": true,
	"dependencies": [
		"scripts/bluebird.js",
		"scripts/hammer.js",
		"scripts/OSG.js"
	],
	"load": {
	},
	"title": "osgjs",
	"version": "1.0.0",
	"description": "SAGE2 application osgjs",
	"keywords": [ "sage2", "osgjs" ],
	"author": "Luc Renambot <renambot@gmail.com>",
	"license": "SAGE2-Software-License"
}
